C[ppm]	UV	R	G	B	W	LED480
10	0.234	0.03	0.04	0.08	0.05	0.293
20	0.48	0.06	0.08	0.15	0.11	0.52
30	0.77	0.09	0.09	0.20	0.14	0.79		
50	1.09	0.08	0.22	0.37	0.27	1.18
70	1.22	0.04	0.10	0.30	0.18	1.30
80	1.24	0.06	0.14	0.30	0.20	1.30
40	0.81	0.04	0.07	0.18	0.12	0.90
60	1.03	0.05	0.10	0.25	0.16	1.10
40mal	0.62	0.04	0.06	0.15	0.08	0.67
60mal	0.87	0.05	0.09	0.23	0.15	0.98

#Abs zero = -0.108
